(module SM-TESTPOINT (layer F.Cu) (tedit 5594187F)
  (fp_text reference SM-TESTPOINT (at 0 0) (layer F.SilkS) hide
    (effects (font (size 0.762 0.762) (thickness 0.1524)))
  )
  (fp_text value VAL** (at 0 1.3) (layer F.SilkS)
    (effects (font (size 0.762 0.762) (thickness 0.1524)))
  )
  (fp_circle (center 0 0) (end 0.6 0) (layer F.SilkS) (width 0.1524))
  (pad 1 smd circle (at 0 0) (size 1 1) (layers F.Cu F.Mask))
)
