(module SMD-0603-DIODE (layer F.Cu) (tedit 54B6E114)
  (fp_text reference SMD-0603-DIODE (at 0 2) (layer F.SilkS)
    (effects (font (size 0.762 0.762) (thickness 0.1524)))
  )
  (fp_text value VAL** (at 0 0) (layer F.SilkS) hide
    (effects (font (size 0.762 0.762) (thickness 0.1524)))
  )
  (fp_line (start 1 -1) (end 1.5 -0.5) (layer F.SilkS) (width 0.1524))
  (fp_line (start 1.5 -0.5) (end 1.5 0.5) (layer F.SilkS) (width 0.1524))
  (fp_line (start 1.5 0.5) (end 1 1) (layer F.SilkS) (width 0.1524))
  (fp_line (start 1 1) (end -1.5 1) (layer F.SilkS) (width 0.1524))
  (fp_line (start -1.5 -1) (end 1 -1) (layer F.SilkS) (width 0.1524))
  (fp_line (start -1.5 1) (end -1.5 -1) (layer F.SilkS) (width 0.1524))
  (pad 1 smd rect (at -0.85 0) (size 1.1 1) (layers F.Cu F.Paste F.Mask))
  (pad 2 smd rect (at 0.85 0) (size 1.1 1) (layers F.Cu F.Paste F.Mask))
  (model "3d/SMD Resistor 1mil 1mil.wrl"
    (at (xyz 0 0 0))
    (scale (xyz 0.6 0.3 0.236))
    (rotate (xyz 0 0 0))
  )
)
