(module SMD-1206-DIODE (layer F.Cu) (tedit 5202CCFA)
  (fp_text reference SMD-1206-DIODE (at 0 2.032) (layer F.SilkS)
    (effects (font (size 0.762 0.762) (thickness 0.127)))
  )
  (fp_text value VAL** (at 0 0) (layer F.SilkS) hide
    (effects (font (size 0.762 0.762) (thickness 0.127)))
  )
  (fp_line (start 2.6 -1.3) (end 2.9 -1.3) (layer F.SilkS) (width 0.15))
  (fp_line (start 2.9 -1.3) (end 2.9 1.3) (layer F.SilkS) (width 0.15))
  (fp_line (start 2.9 1.3) (end 2.6 1.3) (layer F.SilkS) (width 0.15))
  (fp_line (start 2.60096 1.30048) (end 2.60096 -1.30048) (layer F.SilkS) (width 0.16002))
  (fp_line (start 2.60096 -1.30048) (end -2.60096 -1.30048) (layer F.SilkS) (width 0.16002))
  (fp_line (start -2.60096 1.30048) (end 2.60096 1.30048) (layer F.SilkS) (width 0.16002))
  (fp_line (start -2.60096 -1.30048) (end -2.60096 1.30048) (layer F.SilkS) (width 0.16002))
  (pad 1 smd rect (at -1.39954 0) (size 1.6002 1.80086) (layers F.Cu F.Paste F.Mask))
  (pad 2 smd rect (at 1.39954 0) (size 1.6002 1.80086) (layers F.Cu F.Paste F.Mask))
)
