(module SM-1812 (layer F.Cu) (tedit 561957EC)
  (fp_text reference SM-1812 (at 0 2.8 180) (layer F.SilkS)
    (effects (font (size 0.762 0.762) (thickness 0.1524)))
  )
  (fp_text value VAL** (at 0 0) (layer F.SilkS) hide
    (effects (font (size 0.762 0.762) (thickness 0.1524)))
  )
  (fp_text user %R (at 0 0) (layer F.Fab)
    (effects (font (size 0.762 0.762) (thickness 0.1524)))
  )
  (fp_line (start 3.5 -2.5) (end 3.5 2.5) (layer F.Fab) (width 0.1524))
  (fp_line (start 3.5 2.5) (end -3.5 2.5) (layer F.Fab) (width 0.1524))
  (fp_line (start -3.5 2.5) (end -3.5 -2.5) (layer F.Fab) (width 0.1524))
  (fp_line (start -3.5 -2.5) (end 3.5 -2.5) (layer F.Fab) (width 0.1524))
  (fp_line (start 2.25 -1.6) (end 2.25 1.6) (layer F.SilkS) (width 0.1524))
  (fp_line (start 2.25 1.6) (end -2.25 1.6) (layer F.SilkS) (width 0.1524))
  (fp_line (start -2.25 1.6) (end -2.25 -1.6) (layer F.SilkS) (width 0.1524))
  (fp_line (start -2.25 -1.6) (end 2.25 -1.6) (layer F.SilkS) (width 0.1524))
  (fp_line (start 3.5 -2.5) (end 3.5 2.5) (layer F.CrtYd) (width 0.1524))
  (fp_line (start 3.5 2.5) (end -3.5 2.5) (layer F.CrtYd) (width 0.1524))
  (fp_line (start -3.5 2.5) (end -3.5 -2.5) (layer F.CrtYd) (width 0.1524))
  (fp_line (start -3.5 -2.5) (end 3.5 -2.5) (layer F.CrtYd) (width 0.1524))
  (pad 1 smd rect (at -2.25 0) (size 1.5 4.2) (layers F.Cu F.Paste F.Mask))
  (pad 2 smd rect (at 2.25 0) (size 1.5 4.2) (layers F.Cu F.Paste F.Mask))
  (model 3d/cube.wrl
    (at (xyz 0 0 0))
    (scale (xyz 1.8 1.3 0.5))
    (rotate (xyz 0 0 0))
  )
)
