(module SM-1206 (layer F.Cu) (tedit 561957C1)
  (fp_text reference SMD-1206 (at 0 2.2 180) (layer F.SilkS)
    (effects (font (size 0.762 0.762) (thickness 0.1524)))
  )
  (fp_text value VAL** (at 0 0) (layer F.SilkS) hide
    (effects (font (size 0.762 0.762) (thickness 0.127)))
  )
  (fp_text user %R (at 0 0) (layer F.Fab)
    (effects (font (size 0.762 0.762) (thickness 0.1524)))
  )
  (fp_line (start 2.5 -1.5) (end 2.5 1.5) (layer F.Fab) (width 0.1524))
  (fp_line (start 2.5 1.5) (end -2.5 1.5) (layer F.Fab) (width 0.1524))
  (fp_line (start -2.5 1.5) (end -2.5 -1.5) (layer F.Fab) (width 0.1524))
  (fp_line (start -2.5 -1.5) (end 2.5 -1.5) (layer F.Fab) (width 0.1524))
  (fp_line (start 0 -0.9) (end 0 0.9) (layer F.SilkS) (width 0.1524))
  (fp_line (start -2.5 1.5) (end -2.5 -1.5) (layer F.CrtYd) (width 0.15))
  (fp_line (start 2.5 -1.5) (end 2.5 1.5) (layer F.CrtYd) (width 0.15))
  (fp_line (start 2.5 1.5) (end -2.5 1.5) (layer F.CrtYd) (width 0.1524))
  (fp_line (start -2.5 -1.5) (end 2.5 -1.5) (layer F.CrtYd) (width 0.1524))
  (pad 1 smd rect (at -1.39954 0) (size 1.6002 1.80086) (layers F.Cu F.Paste F.Mask))
  (pad 2 smd rect (at 1.39954 0) (size 1.6002 1.80086) (layers F.Cu F.Paste F.Mask))
  (model footprints/sm-chip.pretty/SM-1206-R.wrl
    (at (xyz 0 0 0))
    (scale (xyz 1 1 1))
    (rotate (xyz 0 0 0))
  )
)
