(module SM-2920 (layer F.Cu) (tedit 56195804)
  (fp_text reference SMD-2920 (at 0 4.2) (layer F.SilkS)
    (effects (font (size 0.762 0.762) (thickness 0.1524)))
  )
  (fp_text value VAL** (at 0 0) (layer F.SilkS) hide
    (effects (font (size 0.762 0.762) (thickness 0.1524)))
  )
  (fp_line (start 5.5 -3.5) (end 5.5 3.5) (layer F.Fab) (width 0.1524))
  (fp_line (start 5.5 3.5) (end -5.5 3.5) (layer F.Fab) (width 0.1524))
  (fp_line (start -5.5 3.5) (end -5.5 -3.5) (layer F.Fab) (width 0.1524))
  (fp_line (start -5.5 -3.5) (end 5.5 -3.5) (layer F.Fab) (width 0.1524))
  (fp_line (start 0 -2.9) (end 0 2.8) (layer F.SilkS) (width 0.1524))
  (fp_text user %R (at 0 0) (layer F.Fab)
    (effects (font (size 0.762 0.762) (thickness 0.1524)))
  )
  (fp_line (start -5.5 -3.5) (end -5.5 3.5) (layer F.CrtYd) (width 0.1524))
  (fp_line (start -5.5 3.5) (end 5.5 3.5) (layer F.CrtYd) (width 0.1524))
  (fp_line (start 5.5 3.5) (end 5.5 -3.5) (layer F.CrtYd) (width 0.1524))
  (fp_line (start 5.5 -3.5) (end -5.5 -3.5) (layer F.CrtYd) (width 0.1524))
  (pad 1 smd rect (at -3.6957 0) (size 2.3114 5.6134) (layers F.Cu F.Paste F.Mask))
  (pad 2 smd rect (at 3.6957 0) (size 2.3114 5.6134) (layers F.Cu F.Paste F.Mask))
)
