(module SM-XFMR-BEL_S558-5999-U7-F (layer F.Cu) (tedit 53EE6EDA)
  (fp_text reference SM-XFMR-BEL_S558-5999-U7-F (at 7 0 90) (layer F.SilkS)
    (effects (font (size 0.762 0.762) (thickness 0.1524)))
  )
  (fp_text value VAL** (at 0 0) (layer F.SilkS) hide
    (effects (font (size 0.762 0.762) (thickness 0.1524)))
  )
  (fp_circle (center -6.1595 6.0325) (end -6.1595 5.3975) (layer F.SilkS) (width 0.1524))
  (fp_line (start -6.1595 4.1275) (end -5.5245 4.7625) (layer F.SilkS) (width 0.1524))
  (fp_line (start -4.2545 4.7625) (end -6.1595 2.8575) (layer F.SilkS) (width 0.1524))
  (fp_line (start -4.8895 4.7625) (end -6.1595 3.4925) (layer F.SilkS) (width 0.1524))
  (fp_line (start -6.1595 -4.7625) (end 6.1595 -4.7625) (layer F.SilkS) (width 0.1524))
  (fp_line (start 6.1595 -4.7625) (end 6.1595 4.7625) (layer F.SilkS) (width 0.1524))
  (fp_line (start 6.1595 4.7625) (end -6.1595 4.7625) (layer F.SilkS) (width 0.1524))
  (fp_line (start -6.1595 4.7625) (end -6.1595 -4.7625) (layer F.SilkS) (width 0.1524))
  (pad 1 smd rect (at -4.445 6.477) (size 0.635 1.905) (layers F.Cu F.Paste F.Mask))
  (pad 2 smd rect (at -3.175 6.477) (size 0.635 1.905) (layers F.Cu F.Paste F.Mask))
  (pad 3 smd rect (at -1.905 6.477) (size 0.635 1.905) (layers F.Cu F.Paste F.Mask))
  (pad 4 smd rect (at -0.635 6.477) (size 0.635 1.905) (layers F.Cu F.Paste F.Mask))
  (pad 5 smd rect (at 0.635 6.477) (size 0.635 1.905) (layers F.Cu F.Paste F.Mask))
  (pad 6 smd rect (at 1.905 6.477) (size 0.635 1.905) (layers F.Cu F.Paste F.Mask))
  (pad 7 smd rect (at 3.175 6.477) (size 0.635 1.905) (layers F.Cu F.Paste F.Mask))
  (pad 8 smd rect (at 4.445 6.477) (size 0.635 1.905) (layers F.Cu F.Paste F.Mask))
  (pad 9 smd rect (at 4.445 -6.477) (size 0.635 1.905) (layers F.Cu F.Paste F.Mask))
  (pad 10 smd rect (at 3.175 -6.477) (size 0.635 1.905) (layers F.Cu F.Paste F.Mask))
  (pad 11 smd rect (at 1.905 -6.477) (size 0.635 1.905) (layers F.Cu F.Paste F.Mask))
  (pad 12 smd rect (at 0.635 -6.477) (size 0.635 1.905) (layers F.Cu F.Paste F.Mask))
  (pad 13 smd rect (at -0.635 -6.477) (size 0.635 1.905) (layers F.Cu F.Paste F.Mask))
  (pad 14 smd rect (at -1.905 -6.477) (size 0.635 1.905) (layers F.Cu F.Paste F.Mask))
  (pad 15 smd rect (at -3.175 -6.477) (size 0.635 1.905) (layers F.Cu F.Paste F.Mask))
  (pad 16 smd rect (at -4.445 -6.477) (size 0.635 1.905) (layers F.Cu F.Paste F.Mask))
)
