(module TH-2-7.5MM-ROUND-18MM (layer F.Cu) (tedit 53FB5FBE)
  (fp_text reference TH-2-7.5MM-ROUND-18MM (at 11.00074 0 90) (layer F.SilkS)
    (effects (font (thickness 0.3048)))
  )
  (fp_text value VAL** (at 0 0) (layer F.SilkS) hide
    (effects (font (thickness 0.3048)))
  )
  (fp_circle (center 0 0) (end 8.99922 0) (layer F.SilkS) (width 0.381))
  (pad 1 thru_hole oval (at 0 -3.74904 180) (size 2.5 1.5) (drill 1) (layers *.Cu *.Mask F.SilkS))
  (pad 2 thru_hole oval (at 0 3.74904 180) (size 2.5 1.5) (drill 1) (layers *.Cu *.Mask F.SilkS))
)
