(module SMD-2010 (layer F.Cu) (tedit 5203C750)
  (fp_text reference SMD-2010 (at 0 2.54) (layer F.SilkS)
    (effects (font (size 0.762 0.762) (thickness 0.1524)))
  )
  (fp_text value VAL** (at 0 0) (layer F.SilkS) hide
    (effects (font (size 0.762 0.762) (thickness 0.1524)))
  )
  (fp_line (start 3.5 -1.5) (end 3.5 1.5) (layer F.SilkS) (width 0.1524))
  (fp_line (start 3.5 1.5) (end -3.5 1.5) (layer F.SilkS) (width 0.1524))
  (fp_line (start -3.5 1.5) (end -3.5 -1.5) (layer F.SilkS) (width 0.1524))
  (fp_line (start -3.5 -1.5) (end 3.5 -1.5) (layer F.SilkS) (width 0.1524))
  (pad 1 smd rect (at -2.2 0) (size 1.8 2.7) (layers F.Cu F.Paste F.Mask))
  (pad 2 smd rect (at 2.2 0) (size 1.8 2.7) (layers F.Cu F.Paste F.Mask))
)
