(module SM-2512 (layer F.Cu) (tedit 55955CCE)
  (fp_text reference SMD-2512 (at 0 2.7) (layer F.SilkS)
    (effects (font (size 0.762 0.762) (thickness 0.1524)))
  )
  (fp_text value VAL** (at 0 0) (layer F.SilkS) hide
    (effects (font (size 0.762 0.762) (thickness 0.1524)))
  )
  (fp_line (start 4 -2) (end 4 2) (layer F.SilkS) (width 0.1524))
  (fp_line (start 4 2) (end -4 2) (layer F.SilkS) (width 0.1524))
  (fp_line (start -4 2) (end -4 -2) (layer F.SilkS) (width 0.1524))
  (fp_line (start -4 -2) (end 4 -2) (layer F.SilkS) (width 0.1524))
  (pad 1 smd rect (at -2.8 0) (size 1.8 3.2) (layers F.Cu F.Paste F.Mask))
  (pad 2 smd rect (at 2.8 0) (size 1.8 3.2) (layers F.Cu F.Paste F.Mask))
)
