(module TH-FUSE-TR5-383 (layer F.Cu) (tedit 5203BC97)
  (fp_text reference TH-FUSE-TR5-383 (at 0 5.08) (layer F.SilkS)
    (effects (font (size 0.762 0.762) (thickness 0.1524)))
  )
  (fp_text value VAL** (at 0 0) (layer F.SilkS) hide
    (effects (font (size 0.762 0.762) (thickness 0.1524)))
  )
  (fp_circle (center 0 0) (end 4.25 0) (layer F.SilkS) (width 0.1524))
  (pad 1 thru_hole rect (at -2.54 0) (size 1.651 1.651) (drill 1.016) (layers *.Cu *.Mask F.SilkS))
  (pad 2 thru_hole circle (at 2.54 0) (size 1.651 1.651) (drill 1.016) (layers *.Cu *.Mask F.SilkS))
)
