(module SM-CONN-4X2_100MIL (layer F.Cu) (tedit 53F3B793)
  (fp_text reference SM-CONN-4X2_100MIL (at 6 0 90) (layer F.SilkS)
    (effects (font (size 0.762 0.762) (thickness 0.1524)))
  )
  (fp_text value VAL** (at 0 0) (layer F.SilkS) hide
    (effects (font (size 0.762 0.762) (thickness 0.1524)))
  )
  (fp_text user 2 (at -5 -3) (layer F.SilkS)
    (effects (font (size 0.762 0.762) (thickness 0.1524)))
  )
  (fp_text user 1 (at -5 3) (layer F.SilkS)
    (effects (font (size 0.762 0.762) (thickness 0.1524)))
  )
  (fp_line (start -5.33 0.5) (end -3.33 2.5) (layer F.SilkS) (width 0.1524))
  (fp_line (start -5.33 -2.5) (end -5.33 0.5) (layer F.SilkS) (width 0.1524))
  (fp_line (start -3.33 2.5) (end 5.33 2.5) (layer F.SilkS) (width 0.1524))
  (fp_line (start 5.33 2.5) (end 5.33 -2.5) (layer F.SilkS) (width 0.1524))
  (fp_line (start 5.33 -2.5) (end -5.33 -2.5) (layer F.SilkS) (width 0.1524))
  (pad 1 smd rect (at -3.81 2.9) (size 1 2) (layers F.Cu F.Paste F.Mask))
  (pad 3 smd rect (at -1.27 2.9) (size 1 2) (layers F.Cu F.Paste F.Mask))
  (pad 5 smd rect (at 1.27 2.9) (size 1 2) (layers F.Cu F.Paste F.Mask))
  (pad 7 smd rect (at 3.81 2.9) (size 1 2) (layers F.Cu F.Paste F.Mask))
  (pad 8 smd rect (at 3.81 -2.9) (size 1 2) (layers F.Cu F.Paste F.Mask))
  (pad 6 smd rect (at 1.27 -2.9) (size 1 2) (layers F.Cu F.Paste F.Mask))
  (pad 4 smd rect (at -1.27 -2.9) (size 1 2) (layers F.Cu F.Paste F.Mask))
  (pad 2 smd rect (at -3.81 -2.9) (size 1 2) (layers F.Cu F.Paste F.Mask))
)
