(module SM-JST_RA-2 (layer F.Cu) (tedit 562661E4)
  (fp_text reference REF** (at 0 -5.5) (layer F.SilkS)
    (effects (font (size 0.762 0.762) (thickness 0.1524)))
  )
  (fp_text value SM-JST_RA-2 (at 0 0) (layer F.Fab) hide
    (effects (font (size 0.762 0.762) (thickness 0.1524)))
  )
  (fp_line (start 5 -5) (end 5 5) (layer F.Fab) (width 0.1524))
  (fp_line (start 5 5) (end -5 5) (layer F.Fab) (width 0.1524))
  (fp_line (start -5 5) (end -5 -5) (layer F.Fab) (width 0.1524))
  (fp_line (start -5 -5) (end 5 -5) (layer F.Fab) (width 0.1524))
  (fp_line (start -5 5) (end 5 5) (layer F.CrtYd) (width 0.1524))
  (fp_line (start 5 5) (end 5 -5) (layer F.CrtYd) (width 0.1524))
  (fp_line (start 5 -5) (end -5 -5) (layer F.CrtYd) (width 0.1524))
  (fp_line (start -5 -5) (end -5 5) (layer F.CrtYd) (width 0.1524))
  (fp_line (start 0 -4) (end 1 -3) (layer F.Fab) (width 0.1524))
  (fp_line (start 0 -1.5) (end 0 -4) (layer F.Fab) (width 0.1524))
  (fp_line (start 0 -4) (end -1 -3) (layer F.Fab) (width 0.1524))
  (fp_line (start 2 3.5) (end 4.5 3.5) (layer F.SilkS) (width 0.1524))
  (fp_line (start 4.5 3.5) (end 4.5 -4.5) (layer F.SilkS) (width 0.1524))
  (fp_line (start -4.5 -4.5) (end -4.5 3.5) (layer F.SilkS) (width 0.1524))
  (fp_line (start -4.5 3.5) (end -2 3.5) (layer F.SilkS) (width 0.1524))
  (fp_text user %R (at 0 0) (layer F.Fab)
    (effects (font (size 0.762 0.762) (thickness 0.1524)))
  )
  (pad "" smd rect (at -3.35 -2.8) (size 1.5 3.4) (layers F.Cu F.Paste F.Mask))
  (pad "" smd rect (at 3.35 -2.8) (size 1.5 3.4) (layers F.Cu F.Paste F.Mask))
  (pad 1 smd rect (at -1 2.75) (size 1 3.5) (layers F.Cu F.Paste F.Mask))
  (pad 2 smd rect (at 1 2.75) (size 1 3.5) (layers F.Cu F.Paste F.Mask))
)
