(module TERMINAL-TE-4DB-W108-4 (layer F.Cu) (tedit 55846F18)
  (fp_text reference TERMINAL-TE-4DB-W108-4 (at 0 12.7) (layer F.SilkS)
    (effects (font (thickness 0.3048)))
  )
  (fp_text value VAL** (at 0 0) (layer F.SilkS) hide
    (effects (font (thickness 0.3048)))
  )
  (fp_line (start -17.4625 -2.286) (end -17.4625 10.414) (layer F.SilkS) (width 0.381))
  (fp_line (start -17.526 10.414) (end 17.4625 10.414) (layer F.SilkS) (width 0.381))
  (fp_line (start 17.4625 10.414) (end 17.4625 -2.286) (layer F.SilkS) (width 0.381))
  (fp_line (start 17.4625 -2.286) (end -17.526 -2.286) (layer F.SilkS) (width 0.381))
  (pad 1 thru_hole rect (at -12.3825 0) (size 2.54 3.6576) (drill 1.8288) (layers *.Cu *.Mask F.SilkS))
  (pad 2 thru_hole oval (at -4.1275 0) (size 2.54 3.6576) (drill 1.8288) (layers *.Cu *.Mask F.SilkS))
  (pad 3 thru_hole oval (at 4.1275 0) (size 2.54 3.6576) (drill 1.8288) (layers *.Cu *.Mask F.SilkS))
  (pad 4 thru_hole oval (at 12.3825 0) (size 2.54 3.6576) (drill 1.8288) (layers *.Cu *.Mask F.SilkS))
)
