(module TH-CONN-6_100MIL-KEYED (layer F.Cu) (tedit 566A0586)
  (fp_text reference TH-CONN-6_100MIL-KEYED (at 0 4.064) (layer F.SilkS)
    (effects (font (size 0.762 0.762) (thickness 0.1524)))
  )
  (fp_text value VAL** (at 0 0) (layer F.SilkS) hide
    (effects (font (size 0.762 0.762) (thickness 0.1524)))
  )
  (fp_line (start -8 2.5) (end 8 2.5) (layer F.Fab) (width 0.1524))
  (fp_line (start 8 -3.5) (end 8 3.5) (layer F.CrtYd) (width 0.1524))
  (fp_line (start 8 3.5) (end -8 3.5) (layer F.CrtYd) (width 0.1524))
  (fp_line (start -8 3.5) (end -8 -3.5) (layer F.CrtYd) (width 0.1524))
  (fp_line (start -8 -3.5) (end 8 -3.5) (layer F.CrtYd) (width 0.1524))
  (fp_text user %R (at 0 0) (layer F.Fab)
    (effects (font (size 0.762 0.762) (thickness 0.1524)))
  )
  (fp_line (start 8 3.5) (end 8 -3.5) (layer F.Fab) (width 0.1524))
  (fp_line (start 8 -3.5) (end -8 -3.5) (layer F.Fab) (width 0.1524))
  (fp_line (start -8 -3.5) (end -8 3.5) (layer F.Fab) (width 0.1524))
  (fp_line (start -8 3.5) (end 8 3.5) (layer F.Fab) (width 0.1524))
  (fp_line (start -7.62 1.905) (end 7.62 1.905) (layer F.SilkS) (width 0.1524))
  (fp_line (start 7.62 1.905) (end 7.62 2.54) (layer F.SilkS) (width 0.1524))
  (fp_line (start 7.62 2.54) (end -7.62 2.54) (layer F.SilkS) (width 0.1524))
  (fp_line (start 7.62 3.175) (end 7.62 -3.175) (layer F.SilkS) (width 0.1524))
  (fp_line (start 7.62 -3.175) (end -7.62 -3.175) (layer F.SilkS) (width 0.1524))
  (fp_line (start -7.62 -3.175) (end -7.62 3.175) (layer F.SilkS) (width 0.1524))
  (fp_line (start -7.62 3.175) (end 7.62 3.175) (layer F.SilkS) (width 0.1524))
  (pad 1 thru_hole rect (at -6.35 0) (size 1.524 2.032) (drill 1.016) (layers *.Cu *.Mask F.SilkS))
  (pad 2 thru_hole oval (at -3.81 0) (size 1.524 2.032) (drill 1.016) (layers *.Cu *.Mask F.SilkS))
  (pad 3 thru_hole oval (at -1.27 0) (size 1.524 2.032) (drill 1.016) (layers *.Cu *.Mask F.SilkS))
  (pad 4 thru_hole oval (at 1.27 0) (size 1.524 2.032) (drill 1.016) (layers *.Cu *.Mask F.SilkS))
  (pad 5 thru_hole oval (at 3.81 0) (size 1.524 2.032) (drill 1.016) (layers *.Cu *.Mask F.SilkS))
  (pad 6 thru_hole oval (at 6.35 0) (size 1.524 2.032) (drill 1.016) (layers *.Cu *.Mask F.SilkS))
)
