(module TH-DB25-TE-1734350-1 (layer F.Cu) (tedit 521E56D5)
  (fp_text reference TH-DB25-TE-1734350-1 (at 0 -4) (layer F.SilkS)
    (effects (font (size 0.762 0.762) (thickness 0.1524)))
  )
  (fp_text value VAL** (at 0 0) (layer F.SilkS) hide
    (effects (font (size 0.762 0.762) (thickness 0.1524)))
  )
  (fp_line (start -26.6 -3) (end 26.6 -3) (layer F.SilkS) (width 0.1524))
  (fp_line (start 26.6 -3) (end 26.6 2.9) (layer F.SilkS) (width 0.1524))
  (fp_line (start 26.6 2.9) (end -26.6 2.9) (layer F.SilkS) (width 0.1524))
  (fp_line (start -26.6 2.9) (end -26.6 -3) (layer F.SilkS) (width 0.1524))
  (fp_line (start -19.3 15.8) (end -19.3 9.8) (layer Dwgs.User) (width 0.1524))
  (fp_line (start -19.3 9.8) (end -26.6 9.8) (layer Dwgs.User) (width 0.1524))
  (fp_line (start -19.3 15.8) (end 19.3 15.8) (layer Dwgs.User) (width 0.1524))
  (fp_line (start 19.3 15.8) (end 19.3 9.8) (layer Dwgs.User) (width 0.1524))
  (fp_line (start 19.3 9.8) (end 26.6 9.8) (layer Dwgs.User) (width 0.1524))
  (fp_line (start -26.6 -3) (end -26.6 9.8) (layer Dwgs.User) (width 0.1524))
  (fp_line (start -26.6 -3) (end 26.6 -3) (layer Dwgs.User) (width 0.1524))
  (fp_line (start 26.6 -3) (end 26.6 9.8) (layer Dwgs.User) (width 0.1524))
  (pad MNT1 thru_hole circle (at -23.52 0) (size 5 5) (drill 3.18) (layers *.Cu *.Mask F.SilkS))
  (pad MNT2 thru_hole circle (at 23.52 0) (size 5 5) (drill 3.18) (layers *.Cu *.Mask F.SilkS))
  (pad 1 thru_hole circle (at 16.62 -1.42) (size 1.8 1.8) (drill 1.2) (layers *.Cu *.Mask F.SilkS))
  (pad 2 thru_hole circle (at 13.85 -1.42) (size 1.8 1.8) (drill 1.2) (layers *.Cu *.Mask F.SilkS))
  (pad 3 thru_hole circle (at 11.08 -1.42) (size 1.8 1.8) (drill 1.2) (layers *.Cu *.Mask F.SilkS))
  (pad 5 thru_hole circle (at 5.54 -1.42) (size 1.8 1.8) (drill 1.2) (layers *.Cu *.Mask F.SilkS))
  (pad 6 thru_hole circle (at 2.77 -1.42) (size 1.8 1.8) (drill 1.2) (layers *.Cu *.Mask F.SilkS))
  (pad 7 thru_hole circle (at 0 -1.42) (size 1.8 1.8) (drill 1.2) (layers *.Cu *.Mask F.SilkS))
  (pad 8 thru_hole circle (at -2.77 -1.42) (size 1.8 1.8) (drill 1.2) (layers *.Cu *.Mask F.SilkS))
  (pad 9 thru_hole circle (at -5.54 -1.42) (size 1.8 1.8) (drill 1.2) (layers *.Cu *.Mask F.SilkS))
  (pad 10 thru_hole circle (at -8.31 -1.42) (size 1.8 1.8) (drill 1.2) (layers *.Cu *.Mask F.SilkS))
  (pad 11 thru_hole circle (at -11.08 -1.42) (size 1.8 1.8) (drill 1.2) (layers *.Cu *.Mask F.SilkS))
  (pad 12 thru_hole circle (at -13.85 -1.42) (size 1.8 1.8) (drill 1.2) (layers *.Cu *.Mask F.SilkS))
  (pad 13 thru_hole circle (at -16.62 -1.42) (size 1.8 1.8) (drill 1.2) (layers *.Cu *.Mask F.SilkS))
  (pad 14 thru_hole circle (at 15.235 1.42) (size 1.8 1.8) (drill 1.2) (layers *.Cu *.Mask F.SilkS))
  (pad 15 thru_hole circle (at 12.465 1.42) (size 1.8 1.8) (drill 1.2) (layers *.Cu *.Mask F.SilkS))
  (pad 16 thru_hole circle (at 9.695 1.42) (size 1.8 1.8) (drill 1.2) (layers *.Cu *.Mask F.SilkS))
  (pad 17 thru_hole circle (at 6.925 1.42) (size 1.8 1.8) (drill 1.2) (layers *.Cu *.Mask F.SilkS))
  (pad 18 thru_hole circle (at 4.155 1.42) (size 1.8 1.8) (drill 1.2) (layers *.Cu *.Mask F.SilkS))
  (pad 19 thru_hole circle (at 1.385 1.42) (size 1.8 1.8) (drill 1.2) (layers *.Cu *.Mask F.SilkS))
  (pad 20 thru_hole circle (at -1.385 1.42) (size 1.8 1.8) (drill 1.2) (layers *.Cu *.Mask F.SilkS))
  (pad 21 thru_hole circle (at -4.155 1.42) (size 1.8 1.8) (drill 1.2) (layers *.Cu *.Mask F.SilkS))
  (pad 22 thru_hole circle (at -6.925 1.42) (size 1.8 1.8) (drill 1.2) (layers *.Cu *.Mask F.SilkS))
  (pad 23 thru_hole circle (at -9.695 1.42) (size 1.8 1.8) (drill 1.2) (layers *.Cu *.Mask F.SilkS))
  (pad 24 thru_hole circle (at -12.465 1.42) (size 1.8 1.8) (drill 1.2) (layers *.Cu *.Mask F.SilkS))
  (pad 25 thru_hole circle (at -15.235 1.42) (size 1.8 1.8) (drill 1.2) (layers *.Cu *.Mask F.SilkS))
  (pad 4 thru_hole circle (at 8.31 -1.42) (size 1.8 1.8) (drill 1.2) (layers *.Cu *.Mask F.SilkS))
)
