(module TH-HEADER-10x2-1.27MM (layer F.Cu) (tedit 50C42923)
  (fp_text reference TH-HEADER-10x2-1.27MM (at 0 -1.905) (layer F.SilkS)
    (effects (font (size 0.762 0.762) (thickness 0.127)))
  )
  (fp_text value VAL** (at 0 0) (layer F.SilkS) hide
    (effects (font (thickness 0.3048)))
  )
  (fp_line (start -3.81 0) (end -3.81 1.905) (layer F.SilkS) (width 0.381))
  (fp_line (start -3.81 1.905) (end -1.905 1.905) (layer F.SilkS) (width 0.381))
  (pad 1 thru_hole rect (at -2.54 0.635) (size 1.016 1.016) (drill 0.7112) (layers *.Cu *.Mask F.SilkS))
  (pad 2 thru_hole rect (at -2.54 -0.635) (size 1.016 1.016) (drill 0.7112) (layers *.Cu *.Mask F.SilkS))
  (pad 3 thru_hole rect (at -1.27 0.635) (size 1.016 1.016) (drill 0.7112) (layers *.Cu *.Mask F.SilkS))
  (pad 4 thru_hole rect (at -1.27 -0.635) (size 1.016 1.016) (drill 0.7112) (layers *.Cu *.Mask F.SilkS))
  (pad 5 thru_hole rect (at 0 0.635) (size 1.016 1.016) (drill 0.7112) (layers *.Cu *.Mask F.SilkS))
  (pad 6 thru_hole rect (at 0 -0.635) (size 1.016 1.016) (drill 0.7112) (layers *.Cu *.Mask F.SilkS))
  (pad 7 thru_hole rect (at 1.27 0.635) (size 1.016 1.016) (drill 0.7112) (layers *.Cu *.Mask F.SilkS))
  (pad 8 thru_hole rect (at 1.27 -0.635) (size 1.016 1.016) (drill 0.7112) (layers *.Cu *.Mask F.SilkS))
  (pad 9 thru_hole rect (at 2.54 0.635) (size 1.016 1.016) (drill 0.7112) (layers *.Cu *.Mask F.SilkS))
  (pad 10 thru_hole rect (at 2.54 -0.635) (size 1.016 1.016) (drill 0.7112) (layers *.Cu *.Mask F.SilkS))
)
