(module TH-USB-B_FCI-61729 (layer F.Cu) (tedit 54B69B47)
  (fp_text reference TH-USB-B_FCI-61729 (at 0 -6.5) (layer F.SilkS)
    (effects (font (size 0.762 0.762) (thickness 0.1524)))
  )
  (fp_text value VAL** (at 0 0) (layer F.SilkS) hide
    (effects (font (size 0.762 0.762) (thickness 0.1524)))
  )
  (fp_line (start 6.1 0) (end 6.1 10.28) (layer F.SilkS) (width 0.15))
  (fp_line (start 6.1 10.28) (end -6.1 10.28) (layer F.SilkS) (width 0.15))
  (fp_line (start -6.1 10.28) (end -6.1 0) (layer F.SilkS) (width 0.15))
  (fp_line (start -6.1 0) (end -6.1 -5.56) (layer F.SilkS) (width 0.15))
  (fp_line (start -6.1 -5.56) (end 6.1 -5.56) (layer F.SilkS) (width 0.15))
  (fp_line (start 6.1 -5.56) (end 6.1 0) (layer F.SilkS) (width 0.15))
  (pad 5 thru_hole circle (at -6.02 0) (size 3.6 3.6) (drill 2.3) (layers *.Cu *.Mask F.SilkS))
  (pad 5 thru_hole circle (at 6.02 0) (size 3.6 3.6) (drill 2.3) (layers *.Cu *.Mask F.SilkS))
  (pad 3 thru_hole oval (at -1.25 -2.71) (size 1.84 1.5) (drill 0.92) (layers *.Cu *.Mask F.SilkS))
  (pad 4 thru_hole oval (at 1.25 -2.71) (size 1.84 1.5) (drill 0.92) (layers *.Cu *.Mask F.SilkS))
  (pad 1 thru_hole oval (at 1.25 -4.71) (size 1.84 1.5) (drill 0.92) (layers *.Cu *.Mask F.SilkS))
  (pad 2 thru_hole oval (at -1.25 -4.71) (size 1.84 1.5) (drill 0.92) (layers *.Cu *.Mask F.SilkS))
)
