(module TH-END_RESISTOR-3.9MM (layer F.Cu) (tedit 52E96581)
  (fp_text reference TH-END_RESISTOR-3.9MM (at -4.5 0 90) (layer F.SilkS)
    (effects (font (size 1 1) (thickness 0.15)))
  )
  (fp_text value VAL** (at 0 0) (layer F.SilkS) hide
    (effects (font (size 1 1) (thickness 0.15)))
  )
  (fp_circle (center -1.5 0) (end 0.5 0) (layer F.SilkS) (width 0.15))
  (pad 1 thru_hole circle (at -1.5 0) (size 1.8 1.8) (drill 0.9) (layers *.Cu *.Mask F.SilkS))
  (pad 2 thru_hole circle (at 1.5 0) (size 1.8 1.8) (drill 0.9) (layers *.Cu *.Mask F.SilkS))
)
