(module SM-TANTALUM-KEMET-X (layer F.Cu) (tedit 5619614E)
  (fp_text reference REF** (at 0 3) (layer F.SilkS)
    (effects (font (size 0.762 0.762) (thickness 0.1524)))
  )
  (fp_text value SM-TANTALUM-KEMET-X (at 0 0) (layer F.Fab) hide
    (effects (font (size 0.762 0.762) (thickness 0.1524)))
  )
  (fp_text user %R (at 0 0) (layer F.Fab)
    (effects (font (size 0.762 0.762) (thickness 0.1524)))
  )
  (fp_text user + (at -4 0) (layer F.Fab)
    (effects (font (size 2.54 2.54) (thickness 0.3048)))
  )
  (fp_line (start 5.5 -3) (end 5.5 3) (layer F.Fab) (width 0.1524))
  (fp_line (start 5.5 3) (end -5.5 3) (layer F.Fab) (width 0.1524))
  (fp_line (start -5.5 3) (end -5.5 -3) (layer F.Fab) (width 0.1524))
  (fp_line (start -5.5 -3) (end 5.5 -3) (layer F.Fab) (width 0.1524))
  (fp_text user + (at -4.5 2) (layer F.SilkS)
    (effects (font (size 0.762 0.762) (thickness 0.1524)))
  )
  (fp_line (start 3.65 2.15) (end -3.65 2.15) (layer F.SilkS) (width 0.1524))
  (fp_line (start -3.65 -2.15) (end 3.65 -2.15) (layer F.SilkS) (width 0.1524))
  (fp_line (start 5.5 3) (end -5.5 3) (layer F.CrtYd) (width 0.1524))
  (fp_line (start -5.5 3) (end -5.5 -3) (layer F.CrtYd) (width 0.1524))
  (fp_line (start -5.5 -3) (end 5.5 -3) (layer F.CrtYd) (width 0.1524))
  (fp_line (start 5.5 -3) (end 5.5 3) (layer F.CrtYd) (width 0.1524))
  (pad 1 smd rect (at -3.22 0) (size 2.77 2.55) (layers F.Cu F.Paste F.Mask))
  (pad 2 smd rect (at 3.22 0) (size 2.77 2.55) (layers F.Cu F.Paste F.Mask))
)
