(module SMD_PANASONIC_G (layer F.Cu) (tedit 50985986)
  (fp_text reference SMD_PANASONIC_G (at 0 7.50062) (layer F.SilkS)
    (effects (font (thickness 0.3048)))
  )
  (fp_text value VAL** (at 0 0) (layer F.SilkS) hide
    (effects (font (thickness 0.3048)))
  )
  (fp_line (start -2.99974 -5.4991) (end 2.99974 -5.4991) (layer F.SilkS) (width 0.381))
  (fp_line (start 5.4991 5.4991) (end -5.4991 5.4991) (layer F.SilkS) (width 0.381))
  (fp_circle (center 0 0) (end -5.00126 0) (layer F.SilkS) (width 0.381))
  (fp_line (start 5.4991 5.4991) (end 5.4991 -2.99974) (layer F.SilkS) (width 0.381))
  (fp_line (start 2.99974 -5.4991) (end 5.4991 -2.99974) (layer F.SilkS) (width 0.381))
  (fp_line (start -5.4991 5.4991) (end -5.4991 -2.99974) (layer F.SilkS) (width 0.381))
  (fp_line (start -5.4991 -2.99974) (end -2.99974 -5.4991) (layer F.SilkS) (width 0.381))
  (pad 2 smd rect (at 0 3.59918 180) (size 1.99898 4.09956) (layers F.Cu F.Paste F.Mask))
  (pad 1 smd rect (at 0 -3.59918 180) (size 1.99898 4.09956) (layers F.Cu F.Paste F.Mask))
)
