(module SM-LQFP32 (layer F.Cu) (tedit 54F1FAF9)
  (fp_text reference SM-LQFP32 (at 0 6) (layer F.SilkS)
    (effects (font (size 0.762 0.762) (thickness 0.1524)))
  )
  (fp_text value VAL** (at 0 0) (layer F.SilkS) hide
    (effects (font (size 0.762 0.762) (thickness 0.1524)))
  )
  (fp_circle (center -4.7 -3.6) (end -4.4 -3.6) (layer F.SilkS) (width 0.1524))
  (fp_line (start -2.5 -3.5) (end 3.5 -3.5) (layer F.SilkS) (width 0.1524))
  (fp_line (start -3.5 -2.5) (end -3.5 3.5) (layer F.SilkS) (width 0.1524))
  (fp_line (start -3.5 -2.5) (end -2.5 -3.5) (layer F.SilkS) (width 0.1524))
  (fp_line (start -3.5 3.5) (end 3.5 3.5) (layer F.SilkS) (width 0.1524))
  (fp_line (start 3.5 3.5) (end 3.5 -3.5) (layer F.SilkS) (width 0.1524))
  (pad 1 smd rect (at -4.25 -2.8) (size 1.2 0.5) (layers F.Cu F.Paste F.Mask))
  (pad 2 smd rect (at -4.25 -2) (size 1.2 0.5) (layers F.Cu F.Paste F.Mask))
  (pad 3 smd rect (at -4.25 -1.2) (size 1.2 0.5) (layers F.Cu F.Paste F.Mask))
  (pad 4 smd rect (at -4.25 -0.4) (size 1.2 0.5) (layers F.Cu F.Paste F.Mask))
  (pad 5 smd rect (at -4.25 0.4) (size 1.2 0.5) (layers F.Cu F.Paste F.Mask))
  (pad 6 smd rect (at -4.25 1.2) (size 1.2 0.5) (layers F.Cu F.Paste F.Mask))
  (pad 7 smd rect (at -4.25 2) (size 1.2 0.5) (layers F.Cu F.Paste F.Mask))
  (pad 8 smd rect (at -4.25 2.8) (size 1.2 0.5) (layers F.Cu F.Paste F.Mask))
  (pad 17 smd rect (at 4.25 2.8) (size 1.2 0.5) (layers F.Cu F.Paste F.Mask))
  (pad 18 smd rect (at 4.25 2) (size 1.2 0.5) (layers F.Cu F.Paste F.Mask))
  (pad 19 smd rect (at 4.25 1.2) (size 1.2 0.5) (layers F.Cu F.Paste F.Mask))
  (pad 20 smd rect (at 4.25 0.4) (size 1.2 0.5) (layers F.Cu F.Paste F.Mask))
  (pad 21 smd rect (at 4.25 -0.4) (size 1.2 0.5) (layers F.Cu F.Paste F.Mask))
  (pad 22 smd rect (at 4.25 -1.2) (size 1.2 0.5) (layers F.Cu F.Paste F.Mask))
  (pad 23 smd rect (at 4.25 -2) (size 1.2 0.5) (layers F.Cu F.Paste F.Mask))
  (pad 24 smd rect (at 4.25 -2.8) (size 1.2 0.5) (layers F.Cu F.Paste F.Mask))
  (pad 9 smd rect (at -2.8 4.25) (size 0.5 1.2) (layers F.Cu F.Paste F.Mask))
  (pad 10 smd rect (at -2 4.25) (size 0.5 1.2) (layers F.Cu F.Paste F.Mask))
  (pad 11 smd rect (at -1.2 4.25) (size 0.5 1.2) (layers F.Cu F.Paste F.Mask))
  (pad 12 smd rect (at -0.4 4.25) (size 0.5 1.2) (layers F.Cu F.Paste F.Mask))
  (pad 13 smd rect (at 0.4 4.25) (size 0.5 1.2) (layers F.Cu F.Paste F.Mask))
  (pad 14 smd rect (at 1.2 4.25) (size 0.5 1.2) (layers F.Cu F.Paste F.Mask))
  (pad 15 smd rect (at 2 4.25) (size 0.5 1.2) (layers F.Cu F.Paste F.Mask))
  (pad 16 smd rect (at 2.8 4.25) (size 0.5 1.2) (layers F.Cu F.Paste F.Mask))
  (pad 25 smd rect (at 2.8 -4.25) (size 0.5 1.2) (layers F.Cu F.Paste F.Mask))
  (pad 26 smd rect (at 2 -4.25) (size 0.5 1.2) (layers F.Cu F.Paste F.Mask))
  (pad 27 smd rect (at 1.2 -4.25) (size 0.5 1.2) (layers F.Cu F.Paste F.Mask))
  (pad 28 smd rect (at 0.4 -4.25) (size 0.5 1.2) (layers F.Cu F.Paste F.Mask))
  (pad 29 smd rect (at -0.4 -4.25) (size 0.5 1.2) (layers F.Cu F.Paste F.Mask))
  (pad 30 smd rect (at -1.2 -4.25) (size 0.5 1.2) (layers F.Cu F.Paste F.Mask))
  (pad 31 smd rect (at -2 -4.25) (size 0.5 1.2) (layers F.Cu F.Paste F.Mask))
  (pad 32 smd rect (at -2.8 -4.25) (size 0.5 1.2) (layers F.Cu F.Paste F.Mask))
)
