(module SM-QFN32 (layer F.Cu) (tedit 53ED0E48)
  (clearance 0.1778)
  (fp_text reference SM-QFN32 (at 0 -3.4) (layer F.SilkS)
    (effects (font (size 0.762 0.762) (thickness 0.1524)))
  )
  (fp_text value VAL** (at 0 0) (layer F.SilkS)
    (effects (font (size 0.762 0.762) (thickness 0.1524)))
  )
  (fp_circle (center -3.15 -1.75) (end -3.05 -1.75) (layer F.SilkS) (width 0.1524))
  (fp_line (start -2.05 -2.55) (end -2.55 -2.05) (layer F.SilkS) (width 0.1524))
  (fp_line (start -2.05 -2.55) (end 2.55 -2.55) (layer F.SilkS) (width 0.1524))
  (fp_line (start -2.55 -2.05) (end -2.55 2.55) (layer F.SilkS) (width 0.1524))
  (fp_line (start -2.55 2.55) (end 2.55 2.55) (layer F.SilkS) (width 0.1524))
  (fp_line (start 2.55 2.55) (end 2.55 -2.55) (layer F.SilkS) (width 0.1524))
  (pad 9 smd oval (at -1.75 2.345) (size 0.24 0.69) (layers F.Cu F.Paste F.Mask))
  (pad 10 smd oval (at -1.25 2.345) (size 0.24 0.69) (layers F.Cu F.Paste F.Mask))
  (pad 11 smd oval (at -0.75 2.345) (size 0.24 0.69) (layers F.Cu F.Paste F.Mask))
  (pad 12 smd oval (at -0.25 2.345) (size 0.24 0.69) (layers F.Cu F.Paste F.Mask))
  (pad 13 smd oval (at 0.25 2.345) (size 0.24 0.69) (layers F.Cu F.Paste F.Mask))
  (pad 14 smd oval (at 0.75 2.345) (size 0.24 0.69) (layers F.Cu F.Paste F.Mask))
  (pad 15 smd oval (at 1.25 2.345) (size 0.24 0.69) (layers F.Cu F.Paste F.Mask))
  (pad 16 smd oval (at 1.75 2.345) (size 0.24 0.69) (layers F.Cu F.Paste F.Mask))
  (pad 25 smd oval (at 1.75 -2.345) (size 0.24 0.69) (layers F.Cu F.Paste F.Mask))
  (pad 26 smd oval (at 1.25 -2.345) (size 0.24 0.69) (layers F.Cu F.Paste F.Mask))
  (pad 27 smd oval (at 0.75 -2.345) (size 0.24 0.69) (layers F.Cu F.Paste F.Mask))
  (pad 28 smd oval (at 0.25 -2.345) (size 0.24 0.69) (layers F.Cu F.Paste F.Mask))
  (pad 29 smd oval (at -0.25 -2.345) (size 0.24 0.69) (layers F.Cu F.Paste F.Mask))
  (pad 30 smd oval (at -0.75 -2.345) (size 0.24 0.69) (layers F.Cu F.Paste F.Mask))
  (pad 31 smd oval (at -1.25 -2.345) (size 0.24 0.69) (layers F.Cu F.Paste F.Mask))
  (pad 32 smd oval (at -1.75 -2.345) (size 0.24 0.69) (layers F.Cu F.Paste F.Mask))
  (pad 1 smd oval (at -2.345 -1.75) (size 0.69 0.24) (layers F.Cu F.Paste F.Mask))
  (pad 2 smd oval (at -2.345 -1.25) (size 0.69 0.24) (layers F.Cu F.Paste F.Mask))
  (pad 3 smd oval (at -2.345 -0.75) (size 0.69 0.24) (layers F.Cu F.Paste F.Mask))
  (pad 4 smd oval (at -2.345 -0.25) (size 0.69 0.24) (layers F.Cu F.Paste F.Mask))
  (pad 5 smd oval (at -2.345 0.25) (size 0.69 0.24) (layers F.Cu F.Paste F.Mask))
  (pad 6 smd oval (at -2.345 0.75) (size 0.69 0.24) (layers F.Cu F.Paste F.Mask))
  (pad 7 smd oval (at -2.345 1.25) (size 0.69 0.24) (layers F.Cu F.Paste F.Mask))
  (pad 8 smd oval (at -2.345 1.75) (size 0.69 0.24) (layers F.Cu F.Paste F.Mask))
  (pad 17 smd oval (at 2.345 1.75) (size 0.69 0.24) (layers F.Cu F.Paste F.Mask))
  (pad 18 smd oval (at 2.345 1.25) (size 0.69 0.24) (layers F.Cu F.Paste F.Mask))
  (pad 19 smd oval (at 2.345 0.75) (size 0.69 0.24) (layers F.Cu F.Paste F.Mask))
  (pad 20 smd oval (at 2.345 0.25) (size 0.69 0.24) (layers F.Cu F.Paste F.Mask))
  (pad 21 smd oval (at 2.345 -0.25) (size 0.69 0.24) (layers F.Cu F.Paste F.Mask))
  (pad 22 smd oval (at 2.345 -0.75) (size 0.69 0.24) (layers F.Cu F.Paste F.Mask))
  (pad 23 smd oval (at 2.345 -1.25) (size 0.69 0.24) (layers F.Cu F.Paste F.Mask))
  (pad 24 smd oval (at 2.345 -1.75) (size 0.69 0.24) (layers F.Cu F.Paste F.Mask))
  (pad PAD smd rect (at 0 0) (size 3.2 3.2) (layers F.Cu F.Paste F.Mask))
)
