(module SM-SOT23_GSD (layer F.Cu) (tedit 56195B37)
  (tags SOT23)
  (fp_text reference SM-SOT23_GSD (at 0 2.5 180) (layer F.SilkS)
    (effects (font (size 0.762 0.762) (thickness 0.1524)))
  )
  (fp_text value VAL (at 0.0635 0) (layer F.SilkS) hide
    (effects (font (size 0.50038 0.50038) (thickness 0.0762)))
  )
  (fp_text user %R (at 0 0) (layer F.Fab)
    (effects (font (size 0.762 0.762) (thickness 0.1524)))
  )
  (fp_line (start 1.5 2) (end 1.5 -2) (layer F.Fab) (width 0.1524))
  (fp_line (start 1.5 -2) (end -1.5 -2) (layer F.Fab) (width 0.1524))
  (fp_line (start -1.5 -2) (end -1.5 2) (layer F.Fab) (width 0.1524))
  (fp_line (start -1.5 2) (end 1.5 2) (layer F.Fab) (width 0.1524))
  (fp_line (start 1.5 2) (end 1.5 -2) (layer F.CrtYd) (width 0.1524))
  (fp_line (start 1.5 -2) (end -1.5 -2) (layer F.CrtYd) (width 0.1524))
  (fp_line (start -1.5 -2) (end -1.5 2) (layer F.CrtYd) (width 0.1524))
  (fp_line (start -1.5 2) (end 1.5 2) (layer F.CrtYd) (width 0.1524))
  (fp_line (start -0.508 0.762) (end -1.27 0.254) (layer F.SilkS) (width 0.127))
  (fp_line (start 1.27 0.762) (end -1.3335 0.762) (layer F.SilkS) (width 0.127))
  (fp_line (start -1.3335 0.762) (end -1.3335 -0.762) (layer F.SilkS) (width 0.127))
  (fp_line (start -1.3335 -0.762) (end 1.27 -0.762) (layer F.SilkS) (width 0.127))
  (fp_line (start 1.27 -0.762) (end 1.27 0.762) (layer F.SilkS) (width 0.127))
  (pad D smd rect (at 0 -1.27) (size 0.70104 1.00076) (layers F.Cu F.Paste F.Mask))
  (pad S smd rect (at 0.9525 1.27) (size 0.70104 1.00076) (layers F.Cu F.Paste F.Mask))
  (pad G smd rect (at -0.9525 1.27) (size 0.70104 1.00076) (layers F.Cu F.Paste F.Mask))
  (model smd/SOT23_3.wrl
    (at (xyz 0 0 0))
    (scale (xyz 0.4 0.4 0.4))
    (rotate (xyz 0 0 -180))
  )
)
