(module SM-SO6-1.27MMBSC-4.55MM (layer F.Cu) (tedit 55941683)
  (solder_mask_margin 0.1016)
  (fp_text reference REF** (at 2.6 0 90) (layer F.SilkS)
    (effects (font (size 0.762 0.762) (thickness 0.1524)))
  )
  (fp_text value SM-SO6-1.27MMBSC-4.55MM (at 0 0) (layer F.Fab) hide
    (effects (font (size 0.762 0.762) (thickness 0.1524)))
  )
  (fp_line (start -2 4) (end 2 4) (layer F.CrtYd) (width 0.1524))
  (fp_line (start 2 4) (end 2 -4) (layer F.CrtYd) (width 0.1524))
  (fp_line (start 2 -4) (end -2 -4) (layer F.CrtYd) (width 0.1524))
  (fp_line (start -2 -4) (end -2 4) (layer F.CrtYd) (width 0.1524))
  (fp_circle (center -2.05 3.075) (end -1.85 3.075) (layer F.SilkS) (width 0.1524))
  (fp_line (start -0.85 2.275) (end -1.85 1.275) (layer F.SilkS) (width 0.1524))
  (fp_line (start -1.85 -2.275) (end 1.85 -2.275) (layer F.SilkS) (width 0.1524))
  (fp_line (start 1.85 -2.275) (end 1.85 2.275) (layer F.SilkS) (width 0.1524))
  (fp_line (start 1.85 2.275) (end -0.85 2.275) (layer F.SilkS) (width 0.1524))
  (fp_line (start -1.85 1.275) (end -1.85 -2.275) (layer F.SilkS) (width 0.1524))
  (pad 1 smd rect (at -1.27 3.15) (size 0.8 1.2) (layers F.Cu F.Paste F.Mask))
  (pad 2 smd rect (at 1.27 3.15) (size 0.8 1.2) (layers F.Cu F.Paste F.Mask))
  (pad 3 smd rect (at 1.27 -3.15) (size 0.8 1.2) (layers F.Cu F.Paste F.Mask))
  (pad 4 smd rect (at 0 -3.15) (size 0.8 1.2) (layers F.Cu F.Paste F.Mask))
  (pad 5 smd rect (at -1.27 -3.15) (size 0.8 1.2) (layers F.Cu F.Paste F.Mask))
)
