(module SM-SSOP-16-0.635MMBSC-4MM (layer F.Cu) (tedit 56195A6E)
  (solder_paste_ratio -0.1)
  (clearance 0.1778)
  (fp_text reference REF** (at 0 3.8) (layer F.SilkS)
    (effects (font (size 0.762 0.762) (thickness 0.1524)))
  )
  (fp_text value SM-SSOP-16-0.635MMBSC-4MM (at 0 0) (layer F.Fab) hide
    (effects (font (size 0.762 0.762) (thickness 0.1524)))
  )
  (fp_circle (center -2 2.5) (end -1.5 2.5) (layer F.Fab) (width 0.1524))
  (fp_line (start 3 -3.5) (end 3 3.5) (layer F.Fab) (width 0.1524))
  (fp_line (start 3 3.5) (end -3 3.5) (layer F.Fab) (width 0.1524))
  (fp_line (start -3 3.5) (end -3 -3.5) (layer F.Fab) (width 0.1524))
  (fp_line (start -3 -3.5) (end 3 -3.5) (layer F.Fab) (width 0.1524))
  (fp_text user %R (at 0 0) (layer F.Fab)
    (effects (font (size 0.762 0.762) (thickness 0.1524)))
  )
  (fp_line (start 3 3.5) (end -3 3.5) (layer F.CrtYd) (width 0.1524))
  (fp_line (start -3 3.5) (end -3 -3.5) (layer F.CrtYd) (width 0.1524))
  (fp_line (start -3 -3.5) (end 3 -3.5) (layer F.CrtYd) (width 0.1524))
  (fp_line (start 3 -3.5) (end 3 3.5) (layer F.CrtYd) (width 0.1524))
  (fp_circle (center -3.1 2.6) (end -2.8 2.6) (layer F.SilkS) (width 0.1524))
  (fp_line (start -2.5 -2) (end 2.5 -2) (layer F.SilkS) (width 0.1524))
  (fp_line (start 2.5 -2) (end 2.5 2) (layer F.SilkS) (width 0.1524))
  (fp_line (start 2.5 2) (end -1 2) (layer F.SilkS) (width 0.1524))
  (fp_line (start -1 2) (end -2.5 0.5) (layer F.SilkS) (width 0.1524))
  (fp_line (start -2.5 0.5) (end -2.5 -2) (layer F.SilkS) (width 0.1524))
  (pad 1 smd rect (at -2.2225 2.6) (size 0.4 1.2) (layers F.Cu F.Paste F.Mask))
  (pad 2 smd rect (at -1.5875 2.6) (size 0.4 1.2) (layers F.Cu F.Paste F.Mask))
  (pad 3 smd rect (at -0.9525 2.6) (size 0.4 1.2) (layers F.Cu F.Paste F.Mask))
  (pad 4 smd rect (at -0.3175 2.6) (size 0.4 1.2) (layers F.Cu F.Paste F.Mask))
  (pad 5 smd rect (at 0.3175 2.6) (size 0.4 1.2) (layers F.Cu F.Paste F.Mask))
  (pad 6 smd rect (at 0.9525 2.6) (size 0.4 1.2) (layers F.Cu F.Paste F.Mask))
  (pad 7 smd rect (at 1.5875 2.6) (size 0.4 1.2) (layers F.Cu F.Paste F.Mask))
  (pad 8 smd rect (at 2.2225 2.6) (size 0.4 1.2) (layers F.Cu F.Paste F.Mask))
  (pad 9 smd rect (at 2.2225 -2.6) (size 0.4 1.2) (layers F.Cu F.Paste F.Mask))
  (pad 10 smd rect (at 1.5875 -2.6) (size 0.4 1.2) (layers F.Cu F.Paste F.Mask))
  (pad 11 smd rect (at 0.9525 -2.6) (size 0.4 1.2) (layers F.Cu F.Paste F.Mask))
  (pad 12 smd rect (at 0.3175 -2.6) (size 0.4 1.2) (layers F.Cu F.Paste F.Mask))
  (pad 13 smd rect (at -0.3175 -2.6) (size 0.4 1.2) (layers F.Cu F.Paste F.Mask))
  (pad 14 smd rect (at -0.9525 -2.6) (size 0.4 1.2) (layers F.Cu F.Paste F.Mask))
  (pad 15 smd rect (at -1.5875 -2.6) (size 0.4 1.2) (layers F.Cu F.Paste F.Mask))
  (pad 16 smd rect (at -2.2225 -2.6) (size 0.4 1.2) (layers F.Cu F.Paste F.Mask))
)
