(module SM-SOIC-24_7.5MM (layer F.Cu) (tedit 557CE350)
  (fp_text reference REF** (at 9 0 90) (layer F.SilkS)
    (effects (font (size 1 1) (thickness 0.15)))
  )
  (fp_text value SM-SOIC-24_7.5MM (at 0 0) (layer F.Fab) hide
    (effects (font (size 1 1) (thickness 0.15)))
  )
  (fp_line (start -5.25 3.75) (end -7.75 1.25) (layer F.SilkS) (width 0.15))
  (fp_line (start -7.75 1.25) (end -7.75 -3.75) (layer F.SilkS) (width 0.15))
  (fp_line (start -5.25 3.75) (end 7.75 3.75) (layer F.SilkS) (width 0.15))
  (fp_line (start -7.75 -3.75) (end 7.75 -3.75) (layer F.SilkS) (width 0.15))
  (fp_line (start 7.75 -3.75) (end 7.75 3.75) (layer F.SilkS) (width 0.15))
  (pad 1 smd rect (at -6.985 5.4) (size 0.7 2.4) (layers F.Cu F.Paste F.Mask))
  (pad 2 smd rect (at -5.715 5.4) (size 0.7 2.4) (layers F.Cu F.Paste F.Mask))
  (pad 3 smd rect (at -4.445 5.4) (size 0.7 2.4) (layers F.Cu F.Paste F.Mask))
  (pad 4 smd rect (at -3.175 5.4) (size 0.7 2.4) (layers F.Cu F.Paste F.Mask))
  (pad 5 smd rect (at -1.905 5.4) (size 0.7 2.4) (layers F.Cu F.Paste F.Mask))
  (pad 6 smd rect (at -0.635 5.4) (size 0.7 2.4) (layers F.Cu F.Paste F.Mask))
  (pad 7 smd rect (at 0.635 5.4) (size 0.7 2.4) (layers F.Cu F.Paste F.Mask))
  (pad 8 smd rect (at 1.905 5.4) (size 0.7 2.4) (layers F.Cu F.Paste F.Mask))
  (pad 9 smd rect (at 3.175 5.4) (size 0.7 2.4) (layers F.Cu F.Paste F.Mask))
  (pad 10 smd rect (at 4.445 5.4) (size 0.7 2.4) (layers F.Cu F.Paste F.Mask))
  (pad 11 smd rect (at 5.715 5.4) (size 0.7 2.4) (layers F.Cu F.Paste F.Mask))
  (pad 12 smd rect (at 6.985 5.4) (size 0.7 2.4) (layers F.Cu F.Paste F.Mask))
  (pad 13 smd rect (at 6.985 -5.4) (size 0.7 2.4) (layers F.Cu F.Paste F.Mask))
  (pad 14 smd rect (at 5.715 -5.4) (size 0.7 2.4) (layers F.Cu F.Paste F.Mask))
  (pad 15 smd rect (at 4.445 -5.4) (size 0.7 2.4) (layers F.Cu F.Paste F.Mask))
  (pad 16 smd rect (at 3.175 -5.4) (size 0.7 2.4) (layers F.Cu F.Paste F.Mask))
  (pad 17 smd rect (at 1.905 -5.4) (size 0.7 2.4) (layers F.Cu F.Paste F.Mask))
  (pad 18 smd rect (at 0.635 -5.4) (size 0.7 2.4) (layers F.Cu F.Paste F.Mask))
  (pad 19 smd rect (at -0.635 -5.4) (size 0.7 2.4) (layers F.Cu F.Paste F.Mask))
  (pad 20 smd rect (at -1.905 -5.4) (size 0.7 2.4) (layers F.Cu F.Paste F.Mask))
  (pad 21 smd rect (at -3.175 -5.4) (size 0.7 2.4) (layers F.Cu F.Paste F.Mask))
  (pad 22 smd rect (at -4.445 -5.4) (size 0.7 2.4) (layers F.Cu F.Paste F.Mask))
  (pad 23 smd rect (at -5.715 -5.4) (size 0.7 2.4) (layers F.Cu F.Paste F.Mask))
  (pad 24 smd rect (at -6.985 -5.4) (size 0.7 2.4) (layers F.Cu F.Paste F.Mask))
  (model footprints/sm-ic.pretty/SM-SOIC-24_7.5MM.wrl
    (at (xyz 0 0 0))
    (scale (xyz 1 1 1))
    (rotate (xyz 0 0 -90))
  )
)
