(module TH-PUSHBUTTON-5mmx5mm (layer F.Cu) (tedit 50B956C0)
  (fp_text reference TH-PUSHBUTTON-5mmx5mm (at 0 8.001) (layer F.SilkS)
    (effects (font (thickness 0.3048)))
  )
  (fp_text value VAL** (at 0 0) (layer F.SilkS) hide
    (effects (font (thickness 0.3048)))
  )
  (fp_line (start 0.50038 0) (end 2.49936 0) (layer F.SilkS) (width 0.381))
  (fp_line (start -2.49936 0) (end -1.00076 0) (layer F.SilkS) (width 0.381))
  (fp_line (start -1.00076 0) (end 0.50038 -1.00076) (layer F.SilkS) (width 0.381))
  (fp_line (start 2.49936 -1.00076) (end 2.49936 1.00076) (layer F.SilkS) (width 0.381))
  (fp_line (start -2.49936 -1.00076) (end -2.49936 1.00076) (layer F.SilkS) (width 0.381))
  (fp_circle (center 0 0) (end 5.99948 0) (layer F.SilkS) (width 0.381))
  (pad 1 thru_hole circle (at -2.49936 -2.49936) (size 1.524 1.524) (drill 1.09982) (layers *.Cu *.Mask F.SilkS))
  (pad 2 thru_hole circle (at 2.49936 -2.49936) (size 1.524 1.524) (drill 1.09982) (layers *.Cu *.Mask F.SilkS))
  (pad 3 thru_hole circle (at -2.49936 2.49936) (size 1.524 1.524) (drill 1.09982) (layers *.Cu *.Mask F.SilkS))
  (pad 4 thru_hole circle (at 2.49936 2.49936) (size 1.524 1.524) (drill 1.09982) (layers *.Cu *.Mask F.SilkS))
)
