(module SM-CRYSTAL_CTS-CB3 (layer F.Cu) (tedit 54F21D28)
  (fp_text reference SM-CRYSTAL_CTS-CB3 (at 0 4) (layer F.SilkS)
    (effects (font (size 0.762 0.762) (thickness 0.1524)))
  )
  (fp_text value VAL** (at 0 0) (layer F.SilkS) hide
    (effects (font (size 0.762 0.762) (thickness 0.1524)))
  )
  (fp_line (start -3.5 0) (end -3.5 -2.5) (layer F.SilkS) (width 0.1524))
  (fp_line (start 3.5 2.5) (end 0 2.5) (layer F.SilkS) (width 0.1524))
  (fp_line (start 0 2.5) (end -3.5 0) (layer F.SilkS) (width 0.1524))
  (fp_line (start 3.5 2.5) (end 3.5 -2.5) (layer F.SilkS) (width 0.1524))
  (fp_line (start 3.5 -2.5) (end -3.5 -2.5) (layer F.SilkS) (width 0.1524))
  (pad 1 smd rect (at -2.54 2.1) (size 1.8 2) (layers F.Cu F.Paste F.Mask))
  (pad 2 smd rect (at 2.54 2.01) (size 1.8 2) (layers F.Cu F.Paste F.Mask))
  (pad 3 smd rect (at 2.54 -2.1) (size 1.8 2) (layers F.Cu F.Paste F.Mask))
  (pad 4 smd rect (at -2.54 -2.1) (size 1.8 2) (layers F.Cu F.Paste F.Mask))
)
